(['D:\\Dimas\\python file\\Python Project\\automation_speed_test.py'],
 ['D:\\Dimas\\python file\\Python Project',
  'D:\\Dimas\\python file\\Python Project'],
 ['codecs'],
 ['d:\\dimas\\python '
  'file\\lib\\site-packages\\_pyinstaller_hooks_contrib\\hooks\\stdhooks',
  'd:\\dimas\\python '
  'file\\lib\\site-packages\\_pyinstaller_hooks_contrib\\hooks\\stdhooks\\__pycache__',
  'd:\\dimas\\python '
  'file\\lib\\site-packages\\_pyinstaller_hooks_contrib\\hooks\\rthooks',
  'd:\\dimas\\python '
  'file\\lib\\site-packages\\_pyinstaller_hooks_contrib\\hooks\\rthooks\\__pycache__',
  'd:\\dimas\\python '
  'file\\lib\\site-packages\\_pyinstaller_hooks_contrib\\hooks'],
 [],
 [],
 False,
 False,
 '3.8.0 (tags/v3.8.0:fa919fd, Oct 14 2019, 19:37:50) [MSC v.1916 64 bit '
 '(AMD64)]',
 [('pyi_rth_multiprocessing',
   'D:\\Dimas\\python '
   'file\\Lib\\site-packages\\PyInstaller\\hooks\\rthooks\\pyi_rth_multiprocessing.py',
   'PYSOURCE'),
  ('automation_speed_test',
   'D:\\Dimas\\python file\\Python Project\\automation_speed_test.py',
   'PYSOURCE')],
 [('multiprocessing.popen_fork',
   'd:\\dimas\\python file\\lib\\multiprocessing\\popen_fork.py',
   'PYMODULE'),
  ('multiprocessing.connection',
   'd:\\dimas\\python file\\lib\\multiprocessing\\connection.py',
   'PYMODULE'),
  ('multiprocessing.resource_sharer',
   'd:\\dimas\\python file\\lib\\multiprocessing\\resource_sharer.py',
   'PYMODULE'),
  ('multiprocessing.process',
   'd:\\dimas\\python file\\lib\\multiprocessing\\process.py',
   'PYMODULE'),
  ('threading', 'd:\\dimas\\python file\\lib\\threading.py', 'PYMODULE'),
  ('_threading_local',
   'd:\\dimas\\python file\\lib\\_threading_local.py',
   'PYMODULE'),
  ('contextlib', 'd:\\dimas\\python file\\lib\\contextlib.py', 'PYMODULE'),
  ('selectors', 'd:\\dimas\\python file\\lib\\selectors.py', 'PYMODULE'),
  ('xmlrpc.client',
   'd:\\dimas\\python file\\lib\\xmlrpc\\client.py',
   'PYMODULE'),
  ('xmlrpc', 'd:\\dimas\\python file\\lib\\xmlrpc\\__init__.py', 'PYMODULE'),
  ('gzip', 'd:\\dimas\\python file\\lib\\gzip.py', 'PYMODULE'),
  ('argparse', 'd:\\dimas\\python file\\lib\\argparse.py', 'PYMODULE'),
  ('textwrap', 'd:\\dimas\\python file\\lib\\textwrap.py', 'PYMODULE'),
  ('copy', 'd:\\dimas\\python file\\lib\\copy.py', 'PYMODULE'),
  ('gettext', 'd:\\dimas\\python file\\lib\\gettext.py', 'PYMODULE'),
  ('shutil', 'd:\\dimas\\python file\\lib\\shutil.py', 'PYMODULE'),
  ('zipfile', 'd:\\dimas\\python file\\lib\\zipfile.py', 'PYMODULE'),
  ('py_compile', 'd:\\dimas\\python file\\lib\\py_compile.py', 'PYMODULE'),
  ('ntpath', 'd:\\dimas\\python file\\lib\\ntpath.py', 'PYMODULE'),
  ('string', 'd:\\dimas\\python file\\lib\\string.py', 'PYMODULE'),
  ('genericpath', 'd:\\dimas\\python file\\lib\\genericpath.py', 'PYMODULE'),
  ('importlib.machinery',
   'd:\\dimas\\python file\\lib\\importlib\\machinery.py',
   'PYMODULE'),
  ('importlib',
   'd:\\dimas\\python file\\lib\\importlib\\__init__.py',
   'PYMODULE'),
  ('importlib._bootstrap',
   'd:\\dimas\\python file\\lib\\importlib\\_bootstrap.py',
   'PYMODULE'),
  ('importlib._bootstrap_external',
   'd:\\dimas\\python file\\lib\\importlib\\_bootstrap_external.py',
   'PYMODULE'),
  ('importlib.metadata',
   'd:\\dimas\\python file\\lib\\importlib\\metadata.py',
   'PYMODULE'),
  ('importlib.abc',
   'd:\\dimas\\python file\\lib\\importlib\\abc.py',
   'PYMODULE'),
  ('configparser', 'd:\\dimas\\python file\\lib\\configparser.py', 'PYMODULE'),
  ('pathlib', 'd:\\dimas\\python file\\lib\\pathlib.py', 'PYMODULE'),
  ('email', 'd:\\dimas\\python file\\lib\\email\\__init__.py', 'PYMODULE'),
  ('email.parser', 'd:\\dimas\\python file\\lib\\email\\parser.py', 'PYMODULE'),
  ('email._policybase',
   'd:\\dimas\\python file\\lib\\email\\_policybase.py',
   'PYMODULE'),
  ('email.utils', 'd:\\dimas\\python file\\lib\\email\\utils.py', 'PYMODULE'),
  ('email._parseaddr',
   'd:\\dimas\\python file\\lib\\email\\_parseaddr.py',
   'PYMODULE'),
  ('calendar', 'd:\\dimas\\python file\\lib\\calendar.py', 'PYMODULE'),
  ('random', 'd:\\dimas\\python file\\lib\\random.py', 'PYMODULE'),
  ('hashlib', 'd:\\dimas\\python file\\lib\\hashlib.py', 'PYMODULE'),
  ('logging', 'd:\\dimas\\python file\\lib\\logging\\__init__.py', 'PYMODULE'),
  ('pickle', 'd:\\dimas\\python file\\lib\\pickle.py', 'PYMODULE'),
  ('pprint', 'd:\\dimas\\python file\\lib\\pprint.py', 'PYMODULE'),
  ('doctest', 'd:\\dimas\\python file\\lib\\doctest.py', 'PYMODULE'),
  ('unittest',
   'd:\\dimas\\python file\\lib\\unittest\\__init__.py',
   'PYMODULE'),
  ('unittest.signals',
   'd:\\dimas\\python file\\lib\\unittest\\signals.py',
   'PYMODULE'),
  ('unittest.main',
   'd:\\dimas\\python file\\lib\\unittest\\main.py',
   'PYMODULE'),
  ('unittest.runner',
   'd:\\dimas\\python file\\lib\\unittest\\runner.py',
   'PYMODULE'),
  ('unittest.loader',
   'd:\\dimas\\python file\\lib\\unittest\\loader.py',
   'PYMODULE'),
  ('unittest.suite',
   'd:\\dimas\\python file\\lib\\unittest\\suite.py',
   'PYMODULE'),
  ('unittest.case',
   'd:\\dimas\\python file\\lib\\unittest\\case.py',
   'PYMODULE'),
  ('unittest.async_case',
   'd:\\dimas\\python file\\lib\\unittest\\async_case.py',
   'PYMODULE'),
  ('asyncio', 'd:\\dimas\\python file\\lib\\asyncio\\__init__.py', 'PYMODULE'),
  ('asyncio.unix_events',
   'd:\\dimas\\python file\\lib\\asyncio\\unix_events.py',
   'PYMODULE'),
  ('asyncio.log', 'd:\\dimas\\python file\\lib\\asyncio\\log.py', 'PYMODULE'),
  ('asyncio.windows_events',
   'd:\\dimas\\python file\\lib\\asyncio\\windows_events.py',
   'PYMODULE'),
  ('asyncio.windows_utils',
   'd:\\dimas\\python file\\lib\\asyncio\\windows_utils.py',
   'PYMODULE'),
  ('asyncio.selector_events',
   'd:\\dimas\\python file\\lib\\asyncio\\selector_events.py',
   'PYMODULE'),
  ('ssl', 'd:\\dimas\\python file\\lib\\ssl.py', 'PYMODULE'),
  ('asyncio.proactor_events',
   'd:\\dimas\\python file\\lib\\asyncio\\proactor_events.py',
   'PYMODULE'),
  ('asyncio.base_subprocess',
   'd:\\dimas\\python file\\lib\\asyncio\\base_subprocess.py',
   'PYMODULE'),
  ('asyncio.subprocess',
   'd:\\dimas\\python file\\lib\\asyncio\\subprocess.py',
   'PYMODULE'),
  ('asyncio.streams',
   'd:\\dimas\\python file\\lib\\asyncio\\streams.py',
   'PYMODULE'),
  ('asyncio.queues',
   'd:\\dimas\\python file\\lib\\asyncio\\queues.py',
   'PYMODULE'),
  ('asyncio.runners',
   'd:\\dimas\\python file\\lib\\asyncio\\runners.py',
   'PYMODULE'),
  ('asyncio.trsock',
   'd:\\dimas\\python file\\lib\\asyncio\\trsock.py',
   'PYMODULE'),
  ('asyncio.staggered',
   'd:\\dimas\\python file\\lib\\asyncio\\staggered.py',
   'PYMODULE'),
  ('typing', 'd:\\dimas\\python file\\lib\\typing.py', 'PYMODULE'),
  ('asyncio.tasks',
   'd:\\dimas\\python file\\lib\\asyncio\\tasks.py',
   'PYMODULE'),
  ('contextvars', 'd:\\dimas\\python file\\lib\\contextvars.py', 'PYMODULE'),
  ('concurrent.futures',
   'd:\\dimas\\python file\\lib\\concurrent\\futures\\__init__.py',
   'PYMODULE'),
  ('concurrent.futures.thread',
   'd:\\dimas\\python file\\lib\\concurrent\\futures\\thread.py',
   'PYMODULE'),
  ('queue', 'd:\\dimas\\python file\\lib\\queue.py', 'PYMODULE'),
  ('concurrent.futures.process',
   'd:\\dimas\\python file\\lib\\concurrent\\futures\\process.py',
   'PYMODULE'),
  ('multiprocessing.queues',
   'd:\\dimas\\python file\\lib\\multiprocessing\\queues.py',
   'PYMODULE'),
  ('multiprocessing.synchronize',
   'd:\\dimas\\python file\\lib\\multiprocessing\\synchronize.py',
   'PYMODULE'),
  ('multiprocessing.heap',
   'd:\\dimas\\python file\\lib\\multiprocessing\\heap.py',
   'PYMODULE'),
  ('multiprocessing.resource_tracker',
   'd:\\dimas\\python file\\lib\\multiprocessing\\resource_tracker.py',
   'PYMODULE'),
  ('concurrent.futures._base',
   'd:\\dimas\\python file\\lib\\concurrent\\futures\\_base.py',
   'PYMODULE'),
  ('concurrent',
   'd:\\dimas\\python file\\lib\\concurrent\\__init__.py',
   'PYMODULE'),
  ('asyncio.base_tasks',
   'd:\\dimas\\python file\\lib\\asyncio\\base_tasks.py',
   'PYMODULE'),
  ('asyncio.locks',
   'd:\\dimas\\python file\\lib\\asyncio\\locks.py',
   'PYMODULE'),
  ('asyncio.sslproto',
   'd:\\dimas\\python file\\lib\\asyncio\\sslproto.py',
   'PYMODULE'),
  ('asyncio.transports',
   'd:\\dimas\\python file\\lib\\asyncio\\transports.py',
   'PYMODULE'),
  ('asyncio.base_events',
   'd:\\dimas\\python file\\lib\\asyncio\\base_events.py',
   'PYMODULE'),
  ('asyncio.protocols',
   'd:\\dimas\\python file\\lib\\asyncio\\protocols.py',
   'PYMODULE'),
  ('asyncio.futures',
   'd:\\dimas\\python file\\lib\\asyncio\\futures.py',
   'PYMODULE'),
  ('asyncio.events',
   'd:\\dimas\\python file\\lib\\asyncio\\events.py',
   'PYMODULE'),
  ('asyncio.exceptions',
   'd:\\dimas\\python file\\lib\\asyncio\\exceptions.py',
   'PYMODULE'),
  ('asyncio.coroutines',
   'd:\\dimas\\python file\\lib\\asyncio\\coroutines.py',
   'PYMODULE'),
  ('asyncio.base_futures',
   'd:\\dimas\\python file\\lib\\asyncio\\base_futures.py',
   'PYMODULE'),
  ('asyncio.format_helpers',
   'd:\\dimas\\python file\\lib\\asyncio\\format_helpers.py',
   'PYMODULE'),
  ('asyncio.constants',
   'd:\\dimas\\python file\\lib\\asyncio\\constants.py',
   'PYMODULE'),
  ('unittest.result',
   'd:\\dimas\\python file\\lib\\unittest\\result.py',
   'PYMODULE'),
  ('unittest.util',
   'd:\\dimas\\python file\\lib\\unittest\\util.py',
   'PYMODULE'),
  ('pdb', 'd:\\dimas\\python file\\lib\\pdb.py', 'PYMODULE'),
  ('getopt', 'd:\\dimas\\python file\\lib\\getopt.py', 'PYMODULE'),
  ('pydoc', 'd:\\dimas\\python file\\lib\\pydoc.py', 'PYMODULE'),
  ('webbrowser', 'd:\\dimas\\python file\\lib\\webbrowser.py', 'PYMODULE'),
  ('email.message',
   'd:\\dimas\\python file\\lib\\email\\message.py',
   'PYMODULE'),
  ('email.policy', 'd:\\dimas\\python file\\lib\\email\\policy.py', 'PYMODULE'),
  ('email.contentmanager',
   'd:\\dimas\\python file\\lib\\email\\contentmanager.py',
   'PYMODULE'),
  ('email.quoprimime',
   'd:\\dimas\\python file\\lib\\email\\quoprimime.py',
   'PYMODULE'),
  ('email.headerregistry',
   'd:\\dimas\\python file\\lib\\email\\headerregistry.py',
   'PYMODULE'),
  ('email.iterators',
   'd:\\dimas\\python file\\lib\\email\\iterators.py',
   'PYMODULE'),
  ('email.generator',
   'd:\\dimas\\python file\\lib\\email\\generator.py',
   'PYMODULE'),
  ('email._encoded_words',
   'd:\\dimas\\python file\\lib\\email\\_encoded_words.py',
   'PYMODULE'),
  ('quopri', 'd:\\dimas\\python file\\lib\\quopri.py', 'PYMODULE'),
  ('uu', 'd:\\dimas\\python file\\lib\\uu.py', 'PYMODULE'),
  ('optparse', 'd:\\dimas\\python file\\lib\\optparse.py', 'PYMODULE'),
  ('http.server', 'd:\\dimas\\python file\\lib\\http\\server.py', 'PYMODULE'),
  ('http', 'd:\\dimas\\python file\\lib\\http\\__init__.py', 'PYMODULE'),
  ('socketserver', 'd:\\dimas\\python file\\lib\\socketserver.py', 'PYMODULE'),
  ('mimetypes', 'd:\\dimas\\python file\\lib\\mimetypes.py', 'PYMODULE'),
  ('html', 'd:\\dimas\\python file\\lib\\html\\__init__.py', 'PYMODULE'),
  ('html.entities',
   'd:\\dimas\\python file\\lib\\html\\entities.py',
   'PYMODULE'),
  ('pydoc_data.topics',
   'd:\\dimas\\python file\\lib\\pydoc_data\\topics.py',
   'PYMODULE'),
  ('pydoc_data',
   'd:\\dimas\\python file\\lib\\pydoc_data\\__init__.py',
   'PYMODULE'),
  ('tty', 'd:\\dimas\\python file\\lib\\tty.py', 'PYMODULE'),
  ('platform', 'd:\\dimas\\python file\\lib\\platform.py', 'PYMODULE'),
  ('plistlib', 'd:\\dimas\\python file\\lib\\plistlib.py', 'PYMODULE'),
  ('pkgutil', 'd:\\dimas\\python file\\lib\\pkgutil.py', 'PYMODULE'),
  ('zipimport', 'd:\\dimas\\python file\\lib\\zipimport.py', 'PYMODULE'),
  ('runpy', 'd:\\dimas\\python file\\lib\\runpy.py', 'PYMODULE'),
  ('shlex', 'd:\\dimas\\python file\\lib\\shlex.py', 'PYMODULE'),
  ('glob', 'd:\\dimas\\python file\\lib\\glob.py', 'PYMODULE'),
  ('code', 'd:\\dimas\\python file\\lib\\code.py', 'PYMODULE'),
  ('codeop', 'd:\\dimas\\python file\\lib\\codeop.py', 'PYMODULE'),
  ('dis', 'd:\\dimas\\python file\\lib\\dis.py', 'PYMODULE'),
  ('opcode', 'd:\\dimas\\python file\\lib\\opcode.py', 'PYMODULE'),
  ('bdb', 'd:\\dimas\\python file\\lib\\bdb.py', 'PYMODULE'),
  ('cmd', 'd:\\dimas\\python file\\lib\\cmd.py', 'PYMODULE'),
  ('inspect', 'd:\\dimas\\python file\\lib\\inspect.py', 'PYMODULE'),
  ('ast', 'd:\\dimas\\python file\\lib\\ast.py', 'PYMODULE'),
  ('token', 'd:\\dimas\\python file\\lib\\token.py', 'PYMODULE'),
  ('difflib', 'd:\\dimas\\python file\\lib\\difflib.py', 'PYMODULE'),
  ('__future__', 'd:\\dimas\\python file\\lib\\__future__.py', 'PYMODULE'),
  ('_compat_pickle',
   'd:\\dimas\\python file\\lib\\_compat_pickle.py',
   'PYMODULE'),
  ('bisect', 'd:\\dimas\\python file\\lib\\bisect.py', 'PYMODULE'),
  ('email.feedparser',
   'd:\\dimas\\python file\\lib\\email\\feedparser.py',
   'PYMODULE'),
  ('email._header_value_parser',
   'd:\\dimas\\python file\\lib\\email\\_header_value_parser.py',
   'PYMODULE'),
  ('urllib', 'd:\\dimas\\python file\\lib\\urllib\\__init__.py', 'PYMODULE'),
  ('urllib.request',
   'd:\\dimas\\python file\\lib\\urllib\\request.py',
   'PYMODULE'),
  ('getpass', 'd:\\dimas\\python file\\lib\\getpass.py', 'PYMODULE'),
  ('nturl2path', 'd:\\dimas\\python file\\lib\\nturl2path.py', 'PYMODULE'),
  ('ftplib', 'd:\\dimas\\python file\\lib\\ftplib.py', 'PYMODULE'),
  ('netrc', 'd:\\dimas\\python file\\lib\\netrc.py', 'PYMODULE'),
  ('http.cookiejar',
   'd:\\dimas\\python file\\lib\\http\\cookiejar.py',
   'PYMODULE'),
  ('urllib.response',
   'd:\\dimas\\python file\\lib\\urllib\\response.py',
   'PYMODULE'),
  ('urllib.error', 'd:\\dimas\\python file\\lib\\urllib\\error.py', 'PYMODULE'),
  ('email.header', 'd:\\dimas\\python file\\lib\\email\\header.py', 'PYMODULE'),
  ('email.base64mime',
   'd:\\dimas\\python file\\lib\\email\\base64mime.py',
   'PYMODULE'),
  ('email.charset',
   'd:\\dimas\\python file\\lib\\email\\charset.py',
   'PYMODULE'),
  ('email.encoders',
   'd:\\dimas\\python file\\lib\\email\\encoders.py',
   'PYMODULE'),
  ('email.errors', 'd:\\dimas\\python file\\lib\\email\\errors.py', 'PYMODULE'),
  ('csv', 'd:\\dimas\\python file\\lib\\csv.py', 'PYMODULE'),
  ('tokenize', 'd:\\dimas\\python file\\lib\\tokenize.py', 'PYMODULE'),
  ('posixpath', 'd:\\dimas\\python file\\lib\\posixpath.py', 'PYMODULE'),
  ('importlib.util',
   'd:\\dimas\\python file\\lib\\importlib\\util.py',
   'PYMODULE'),
  ('tarfile', 'd:\\dimas\\python file\\lib\\tarfile.py', 'PYMODULE'),
  ('lzma', 'd:\\dimas\\python file\\lib\\lzma.py', 'PYMODULE'),
  ('bz2', 'd:\\dimas\\python file\\lib\\bz2.py', 'PYMODULE'),
  ('fnmatch', 'd:\\dimas\\python file\\lib\\fnmatch.py', 'PYMODULE'),
  ('stat', 'd:\\dimas\\python file\\lib\\stat.py', 'PYMODULE'),
  ('_compression', 'd:\\dimas\\python file\\lib\\_compression.py', 'PYMODULE'),
  ('xml.parsers.expat',
   'd:\\dimas\\python file\\lib\\xml\\parsers\\expat.py',
   'PYMODULE'),
  ('xml.parsers',
   'd:\\dimas\\python file\\lib\\xml\\parsers\\__init__.py',
   'PYMODULE'),
  ('xml', 'd:\\dimas\\python file\\lib\\xml\\__init__.py', 'PYMODULE'),
  ('xml.sax.expatreader',
   'd:\\dimas\\python file\\lib\\xml\\sax\\expatreader.py',
   'PYMODULE'),
  ('xml.sax.saxutils',
   'd:\\dimas\\python file\\lib\\xml\\sax\\saxutils.py',
   'PYMODULE'),
  ('xml.sax', 'd:\\dimas\\python file\\lib\\xml\\sax\\__init__.py', 'PYMODULE'),
  ('xml.sax.handler',
   'd:\\dimas\\python file\\lib\\xml\\sax\\handler.py',
   'PYMODULE'),
  ('xml.sax._exceptions',
   'd:\\dimas\\python file\\lib\\xml\\sax\\_exceptions.py',
   'PYMODULE'),
  ('xml.sax.xmlreader',
   'd:\\dimas\\python file\\lib\\xml\\sax\\xmlreader.py',
   'PYMODULE'),
  ('urllib.parse', 'd:\\dimas\\python file\\lib\\urllib\\parse.py', 'PYMODULE'),
  ('http.client', 'd:\\dimas\\python file\\lib\\http\\client.py', 'PYMODULE'),
  ('decimal', 'd:\\dimas\\python file\\lib\\decimal.py', 'PYMODULE'),
  ('_pydecimal', 'd:\\dimas\\python file\\lib\\_pydecimal.py', 'PYMODULE'),
  ('numbers', 'd:\\dimas\\python file\\lib\\numbers.py', 'PYMODULE'),
  ('datetime', 'd:\\dimas\\python file\\lib\\datetime.py', 'PYMODULE'),
  ('_strptime', 'd:\\dimas\\python file\\lib\\_strptime.py', 'PYMODULE'),
  ('base64', 'd:\\dimas\\python file\\lib\\base64.py', 'PYMODULE'),
  ('hmac', 'd:\\dimas\\python file\\lib\\hmac.py', 'PYMODULE'),
  ('multiprocessing.context',
   'd:\\dimas\\python file\\lib\\multiprocessing\\context.py',
   'PYMODULE'),
  ('multiprocessing.popen_forkserver',
   'd:\\dimas\\python file\\lib\\multiprocessing\\popen_forkserver.py',
   'PYMODULE'),
  ('multiprocessing.popen_spawn_posix',
   'd:\\dimas\\python file\\lib\\multiprocessing\\popen_spawn_posix.py',
   'PYMODULE'),
  ('multiprocessing.forkserver',
   'd:\\dimas\\python file\\lib\\multiprocessing\\forkserver.py',
   'PYMODULE'),
  ('multiprocessing.sharedctypes',
   'd:\\dimas\\python file\\lib\\multiprocessing\\sharedctypes.py',
   'PYMODULE'),
  ('ctypes', 'd:\\dimas\\python file\\lib\\ctypes\\__init__.py', 'PYMODULE'),
  ('ctypes._endian',
   'd:\\dimas\\python file\\lib\\ctypes\\_endian.py',
   'PYMODULE'),
  ('multiprocessing.pool',
   'd:\\dimas\\python file\\lib\\multiprocessing\\pool.py',
   'PYMODULE'),
  ('multiprocessing.dummy',
   'd:\\dimas\\python file\\lib\\multiprocessing\\dummy\\__init__.py',
   'PYMODULE'),
  ('multiprocessing.dummy.connection',
   'd:\\dimas\\python file\\lib\\multiprocessing\\dummy\\connection.py',
   'PYMODULE'),
  ('multiprocessing.managers',
   'd:\\dimas\\python file\\lib\\multiprocessing\\managers.py',
   'PYMODULE'),
  ('multiprocessing.shared_memory',
   'd:\\dimas\\python file\\lib\\multiprocessing\\shared_memory.py',
   'PYMODULE'),
  ('secrets', 'd:\\dimas\\python file\\lib\\secrets.py', 'PYMODULE'),
  ('multiprocessing.reduction',
   'd:\\dimas\\python file\\lib\\multiprocessing\\reduction.py',
   'PYMODULE'),
  ('tempfile', 'd:\\dimas\\python file\\lib\\tempfile.py', 'PYMODULE'),
  ('struct', 'd:\\dimas\\python file\\lib\\struct.py', 'PYMODULE'),
  ('socket', 'd:\\dimas\\python file\\lib\\socket.py', 'PYMODULE'),
  ('multiprocessing.util',
   'd:\\dimas\\python file\\lib\\multiprocessing\\util.py',
   'PYMODULE'),
  ('signal', 'd:\\dimas\\python file\\lib\\signal.py', 'PYMODULE'),
  ('multiprocessing.popen_spawn_win32',
   'd:\\dimas\\python file\\lib\\multiprocessing\\popen_spawn_win32.py',
   'PYMODULE'),
  ('subprocess', 'd:\\dimas\\python file\\lib\\subprocess.py', 'PYMODULE'),
  ('multiprocessing.spawn',
   'd:\\dimas\\python file\\lib\\multiprocessing\\spawn.py',
   'PYMODULE'),
  ('multiprocessing',
   'd:\\dimas\\python file\\lib\\multiprocessing\\__init__.py',
   'PYMODULE'),
  ('tracemalloc', 'd:\\dimas\\python file\\lib\\tracemalloc.py', 'PYMODULE'),
  ('stringprep', 'd:\\dimas\\python file\\lib\\stringprep.py', 'PYMODULE'),
  ('_py_abc', 'd:\\dimas\\python file\\lib\\_py_abc.py', 'PYMODULE'),
  ('os', 'd:\\dimas\\python file\\lib\\os.py', 'PYMODULE'),
  ('selenium.webdriver',
   'd:\\dimas\\python '
   'file\\lib\\site-packages\\selenium\\webdriver\\__init__.py',
   'PYMODULE'),
  ('selenium.webdriver.common.proxy',
   'd:\\dimas\\python '
   'file\\lib\\site-packages\\selenium\\webdriver\\common\\proxy.py',
   'PYMODULE'),
  ('selenium.webdriver.common',
   'd:\\dimas\\python '
   'file\\lib\\site-packages\\selenium\\webdriver\\common\\__init__.py',
   'PYMODULE'),
  ('selenium.webdriver.common.service',
   'd:\\dimas\\python '
   'file\\lib\\site-packages\\selenium\\webdriver\\common\\service.py',
   'PYMODULE'),
  ('selenium.webdriver.common.utils',
   'd:\\dimas\\python '
   'file\\lib\\site-packages\\selenium\\webdriver\\common\\utils.py',
   'PYMODULE'),
  ('selenium.webdriver.common.keys',
   'd:\\dimas\\python '
   'file\\lib\\site-packages\\selenium\\webdriver\\common\\keys.py',
   'PYMODULE'),
  ('selenium.common.exceptions',
   'd:\\dimas\\python '
   'file\\lib\\site-packages\\selenium\\common\\exceptions.py',
   'PYMODULE'),
  ('selenium.common',
   'd:\\dimas\\python file\\lib\\site-packages\\selenium\\common\\__init__.py',
   'PYMODULE'),
  ('selenium.webdriver.common.touch_actions',
   'd:\\dimas\\python '
   'file\\lib\\site-packages\\selenium\\webdriver\\common\\touch_actions.py',
   'PYMODULE'),
  ('selenium.webdriver.remote.command',
   'd:\\dimas\\python '
   'file\\lib\\site-packages\\selenium\\webdriver\\remote\\command.py',
   'PYMODULE'),
  ('selenium.webdriver.remote',
   'd:\\dimas\\python '
   'file\\lib\\site-packages\\selenium\\webdriver\\remote\\__init__.py',
   'PYMODULE'),
  ('selenium.webdriver.remote.utils',
   'd:\\dimas\\python '
   'file\\lib\\site-packages\\selenium\\webdriver\\remote\\utils.py',
   'PYMODULE'),
  ('json', 'd:\\dimas\\python file\\lib\\json\\__init__.py', 'PYMODULE'),
  ('json.encoder', 'd:\\dimas\\python file\\lib\\json\\encoder.py', 'PYMODULE'),
  ('json.decoder', 'd:\\dimas\\python file\\lib\\json\\decoder.py', 'PYMODULE'),
  ('json.scanner', 'd:\\dimas\\python file\\lib\\json\\scanner.py', 'PYMODULE'),
  ('selenium.webdriver.common.action_chains',
   'd:\\dimas\\python '
   'file\\lib\\site-packages\\selenium\\webdriver\\common\\action_chains.py',
   'PYMODULE'),
  ('selenium.webdriver.common.actions.action_builder',
   'd:\\dimas\\python '
   'file\\lib\\site-packages\\selenium\\webdriver\\common\\actions\\action_builder.py',
   'PYMODULE'),
  ('selenium.webdriver.common.actions.pointer_input',
   'd:\\dimas\\python '
   'file\\lib\\site-packages\\selenium\\webdriver\\common\\actions\\pointer_input.py',
   'PYMODULE'),
  ('selenium.webdriver.remote.webelement',
   'd:\\dimas\\python '
   'file\\lib\\site-packages\\selenium\\webdriver\\remote\\webelement.py',
   'PYMODULE'),
  ('selenium.webdriver.common.by',
   'd:\\dimas\\python '
   'file\\lib\\site-packages\\selenium\\webdriver\\common\\by.py',
   'PYMODULE'),
  ('selenium.webdriver.common.actions.input_device',
   'd:\\dimas\\python '
   'file\\lib\\site-packages\\selenium\\webdriver\\common\\actions\\input_device.py',
   'PYMODULE'),
  ('uuid', 'd:\\dimas\\python file\\lib\\uuid.py', 'PYMODULE'),
  ('ctypes.util', 'd:\\dimas\\python file\\lib\\ctypes\\util.py', 'PYMODULE'),
  ('ctypes._aix', 'd:\\dimas\\python file\\lib\\ctypes\\_aix.py', 'PYMODULE'),
  ('ctypes.macholib.dyld',
   'd:\\dimas\\python file\\lib\\ctypes\\macholib\\dyld.py',
   'PYMODULE'),
  ('ctypes.macholib',
   'd:\\dimas\\python file\\lib\\ctypes\\macholib\\__init__.py',
   'PYMODULE'),
  ('ctypes.macholib.dylib',
   'd:\\dimas\\python file\\lib\\ctypes\\macholib\\dylib.py',
   'PYMODULE'),
  ('ctypes.macholib.framework',
   'd:\\dimas\\python file\\lib\\ctypes\\macholib\\framework.py',
   'PYMODULE'),
  ('selenium.webdriver.common.actions.pointer_actions',
   'd:\\dimas\\python '
   'file\\lib\\site-packages\\selenium\\webdriver\\common\\actions\\pointer_actions.py',
   'PYMODULE'),
  ('selenium.webdriver.common.actions.mouse_button',
   'd:\\dimas\\python '
   'file\\lib\\site-packages\\selenium\\webdriver\\common\\actions\\mouse_button.py',
   'PYMODULE'),
  ('selenium.webdriver.common.actions.key_input',
   'd:\\dimas\\python '
   'file\\lib\\site-packages\\selenium\\webdriver\\common\\actions\\key_input.py',
   'PYMODULE'),
  ('selenium.webdriver.common.actions.key_actions',
   'd:\\dimas\\python '
   'file\\lib\\site-packages\\selenium\\webdriver\\common\\actions\\key_actions.py',
   'PYMODULE'),
  ('selenium.webdriver.common.actions.interaction',
   'd:\\dimas\\python '
   'file\\lib\\site-packages\\selenium\\webdriver\\common\\actions\\interaction.py',
   'PYMODULE'),
  ('selenium.webdriver.common.actions',
   'd:\\dimas\\python '
   'file\\lib\\site-packages\\selenium\\webdriver\\common\\actions\\__init__.py',
   'PYMODULE'),
  ('selenium.webdriver.common.desired_capabilities',
   'd:\\dimas\\python '
   'file\\lib\\site-packages\\selenium\\webdriver\\common\\desired_capabilities.py',
   'PYMODULE'),
  ('selenium.webdriver.remote.webdriver',
   'd:\\dimas\\python '
   'file\\lib\\site-packages\\selenium\\webdriver\\remote\\webdriver.py',
   'PYMODULE'),
  ('selenium.webdriver.common.html5.application_cache',
   'd:\\dimas\\python '
   'file\\lib\\site-packages\\selenium\\webdriver\\common\\html5\\application_cache.py',
   'PYMODULE'),
  ('selenium.webdriver.common.html5',
   'd:\\dimas\\python '
   'file\\lib\\site-packages\\selenium\\webdriver\\common\\html5\\__init__.py',
   'PYMODULE'),
  ('selenium.webdriver.remote.file_detector',
   'd:\\dimas\\python '
   'file\\lib\\site-packages\\selenium\\webdriver\\remote\\file_detector.py',
   'PYMODULE'),
  ('selenium.webdriver.remote.mobile',
   'd:\\dimas\\python '
   'file\\lib\\site-packages\\selenium\\webdriver\\remote\\mobile.py',
   'PYMODULE'),
  ('selenium.webdriver.remote.switch_to',
   'd:\\dimas\\python '
   'file\\lib\\site-packages\\selenium\\webdriver\\remote\\switch_to.py',
   'PYMODULE'),
  ('selenium.webdriver.common.alert',
   'd:\\dimas\\python '
   'file\\lib\\site-packages\\selenium\\webdriver\\common\\alert.py',
   'PYMODULE'),
  ('selenium.webdriver.remote.errorhandler',
   'd:\\dimas\\python '
   'file\\lib\\site-packages\\selenium\\webdriver\\remote\\errorhandler.py',
   'PYMODULE'),
  ('selenium.webdriver.remote.remote_connection',
   'd:\\dimas\\python '
   'file\\lib\\site-packages\\selenium\\webdriver\\remote\\remote_connection.py',
   'PYMODULE'),
  ('urllib3',
   'd:\\dimas\\python file\\lib\\site-packages\\urllib3\\__init__.py',
   'PYMODULE'),
  ('urllib3._version',
   'd:\\dimas\\python file\\lib\\site-packages\\urllib3\\_version.py',
   'PYMODULE'),
  ('urllib3.util.retry',
   'd:\\dimas\\python file\\lib\\site-packages\\urllib3\\util\\retry.py',
   'PYMODULE'),
  ('urllib3.util',
   'd:\\dimas\\python file\\lib\\site-packages\\urllib3\\util\\__init__.py',
   'PYMODULE'),
  ('urllib3.util.wait',
   'd:\\dimas\\python file\\lib\\site-packages\\urllib3\\util\\wait.py',
   'PYMODULE'),
  ('urllib3.util.ssl_',
   'd:\\dimas\\python file\\lib\\site-packages\\urllib3\\util\\ssl_.py',
   'PYMODULE'),
  ('urllib3.util.response',
   'd:\\dimas\\python file\\lib\\site-packages\\urllib3\\util\\response.py',
   'PYMODULE'),
  ('urllib3.util.connection',
   'd:\\dimas\\python file\\lib\\site-packages\\urllib3\\util\\connection.py',
   'PYMODULE'),
  ('urllib3.contrib._appengine_environ',
   'd:\\dimas\\python '
   'file\\lib\\site-packages\\urllib3\\contrib\\_appengine_environ.py',
   'PYMODULE'),
  ('urllib3.contrib',
   'd:\\dimas\\python file\\lib\\site-packages\\urllib3\\contrib\\__init__.py',
   'PYMODULE'),
  ('urllib3.packages.six',
   'd:\\dimas\\python file\\lib\\site-packages\\urllib3\\packages\\six.py',
   'PYMODULE'),
  ('urllib3.packages',
   'd:\\dimas\\python file\\lib\\site-packages\\urllib3\\packages\\__init__.py',
   'PYMODULE'),
  ('urllib3.packages.ssl_match_hostname',
   'd:\\dimas\\python '
   'file\\lib\\site-packages\\urllib3\\packages\\ssl_match_hostname\\__init__.py',
   'PYMODULE'),
  ('urllib3.packages.ssl_match_hostname._implementation',
   'd:\\dimas\\python '
   'file\\lib\\site-packages\\urllib3\\packages\\ssl_match_hostname\\_implementation.py',
   'PYMODULE'),
  ('ipaddress', 'd:\\dimas\\python file\\lib\\ipaddress.py', 'PYMODULE'),
  ('urllib3.util.timeout',
   'd:\\dimas\\python file\\lib\\site-packages\\urllib3\\util\\timeout.py',
   'PYMODULE'),
  ('urllib3.util.url',
   'd:\\dimas\\python file\\lib\\site-packages\\urllib3\\util\\url.py',
   'PYMODULE'),
  ('idna',
   'd:\\dimas\\python file\\lib\\site-packages\\idna\\__init__.py',
   'PYMODULE'),
  ('idna.core',
   'd:\\dimas\\python file\\lib\\site-packages\\idna\\core.py',
   'PYMODULE'),
  ('idna.uts46data',
   'd:\\dimas\\python file\\lib\\site-packages\\idna\\uts46data.py',
   'PYMODULE'),
  ('idna.intranges',
   'd:\\dimas\\python file\\lib\\site-packages\\idna\\intranges.py',
   'PYMODULE'),
  ('idna.idnadata',
   'd:\\dimas\\python file\\lib\\site-packages\\idna\\idnadata.py',
   'PYMODULE'),
  ('idna.package_data',
   'd:\\dimas\\python file\\lib\\site-packages\\idna\\package_data.py',
   'PYMODULE'),
  ('urllib3.util.request',
   'd:\\dimas\\python file\\lib\\site-packages\\urllib3\\util\\request.py',
   'PYMODULE'),
  ('urllib3.response',
   'd:\\dimas\\python file\\lib\\site-packages\\urllib3\\response.py',
   'PYMODULE'),
  ('urllib3.connection',
   'd:\\dimas\\python file\\lib\\site-packages\\urllib3\\connection.py',
   'PYMODULE'),
  ('urllib3._collections',
   'd:\\dimas\\python file\\lib\\site-packages\\urllib3\\_collections.py',
   'PYMODULE'),
  ('urllib3.poolmanager',
   'd:\\dimas\\python file\\lib\\site-packages\\urllib3\\poolmanager.py',
   'PYMODULE'),
  ('urllib3.request',
   'd:\\dimas\\python file\\lib\\site-packages\\urllib3\\request.py',
   'PYMODULE'),
  ('urllib3.filepost',
   'd:\\dimas\\python file\\lib\\site-packages\\urllib3\\filepost.py',
   'PYMODULE'),
  ('urllib3.fields',
   'd:\\dimas\\python file\\lib\\site-packages\\urllib3\\fields.py',
   'PYMODULE'),
  ('urllib3.exceptions',
   'd:\\dimas\\python file\\lib\\site-packages\\urllib3\\exceptions.py',
   'PYMODULE'),
  ('urllib3.connectionpool',
   'd:\\dimas\\python file\\lib\\site-packages\\urllib3\\connectionpool.py',
   'PYMODULE'),
  ('urllib3.util.queue',
   'd:\\dimas\\python file\\lib\\site-packages\\urllib3\\util\\queue.py',
   'PYMODULE'),
  ('selenium.webdriver.webkitgtk.options',
   'd:\\dimas\\python '
   'file\\lib\\site-packages\\selenium\\webdriver\\webkitgtk\\options.py',
   'PYMODULE'),
  ('selenium.webdriver.webkitgtk',
   'd:\\dimas\\python '
   'file\\lib\\site-packages\\selenium\\webdriver\\webkitgtk\\__init__.py',
   'PYMODULE'),
  ('selenium.webdriver.webkitgtk.webdriver',
   'd:\\dimas\\python '
   'file\\lib\\site-packages\\selenium\\webdriver\\webkitgtk\\webdriver.py',
   'PYMODULE'),
  ('selenium.webdriver.webkitgtk.service',
   'd:\\dimas\\python '
   'file\\lib\\site-packages\\selenium\\webdriver\\webkitgtk\\service.py',
   'PYMODULE'),
  ('selenium.webdriver.android.webdriver',
   'd:\\dimas\\python '
   'file\\lib\\site-packages\\selenium\\webdriver\\android\\webdriver.py',
   'PYMODULE'),
  ('selenium.webdriver.android',
   'd:\\dimas\\python '
   'file\\lib\\site-packages\\selenium\\webdriver\\android\\__init__.py',
   'PYMODULE'),
  ('selenium.webdriver.phantomjs.webdriver',
   'd:\\dimas\\python '
   'file\\lib\\site-packages\\selenium\\webdriver\\phantomjs\\webdriver.py',
   'PYMODULE'),
  ('selenium.webdriver.phantomjs',
   'd:\\dimas\\python '
   'file\\lib\\site-packages\\selenium\\webdriver\\phantomjs\\__init__.py',
   'PYMODULE'),
  ('selenium.webdriver.phantomjs.service',
   'd:\\dimas\\python '
   'file\\lib\\site-packages\\selenium\\webdriver\\phantomjs\\service.py',
   'PYMODULE'),
  ('selenium.webdriver.blackberry.webdriver',
   'd:\\dimas\\python '
   'file\\lib\\site-packages\\selenium\\webdriver\\blackberry\\webdriver.py',
   'PYMODULE'),
  ('selenium.webdriver.blackberry',
   'd:\\dimas\\python '
   'file\\lib\\site-packages\\selenium\\webdriver\\blackberry\\__init__.py',
   'PYMODULE'),
  ('selenium.webdriver.support.ui',
   'd:\\dimas\\python '
   'file\\lib\\site-packages\\selenium\\webdriver\\support\\ui.py',
   'PYMODULE'),
  ('selenium.webdriver.support',
   'd:\\dimas\\python '
   'file\\lib\\site-packages\\selenium\\webdriver\\support\\__init__.py',
   'PYMODULE'),
  ('selenium.webdriver.support.wait',
   'd:\\dimas\\python '
   'file\\lib\\site-packages\\selenium\\webdriver\\support\\wait.py',
   'PYMODULE'),
  ('selenium.webdriver.support.select',
   'd:\\dimas\\python '
   'file\\lib\\site-packages\\selenium\\webdriver\\support\\select.py',
   'PYMODULE'),
  ('selenium.webdriver.safari.webdriver',
   'd:\\dimas\\python '
   'file\\lib\\site-packages\\selenium\\webdriver\\safari\\webdriver.py',
   'PYMODULE'),
  ('selenium.webdriver.safari',
   'd:\\dimas\\python '
   'file\\lib\\site-packages\\selenium\\webdriver\\safari\\__init__.py',
   'PYMODULE'),
  ('selenium.webdriver.safari.remote_connection',
   'd:\\dimas\\python '
   'file\\lib\\site-packages\\selenium\\webdriver\\safari\\remote_connection.py',
   'PYMODULE'),
  ('selenium.webdriver.safari.service',
   'd:\\dimas\\python '
   'file\\lib\\site-packages\\selenium\\webdriver\\safari\\service.py',
   'PYMODULE'),
  ('selenium.webdriver.opera.webdriver',
   'd:\\dimas\\python '
   'file\\lib\\site-packages\\selenium\\webdriver\\opera\\webdriver.py',
   'PYMODULE'),
  ('selenium.webdriver.opera',
   'd:\\dimas\\python '
   'file\\lib\\site-packages\\selenium\\webdriver\\opera\\__init__.py',
   'PYMODULE'),
  ('selenium.webdriver.opera.options',
   'd:\\dimas\\python '
   'file\\lib\\site-packages\\selenium\\webdriver\\opera\\options.py',
   'PYMODULE'),
  ('selenium.webdriver.edge.webdriver',
   'd:\\dimas\\python '
   'file\\lib\\site-packages\\selenium\\webdriver\\edge\\webdriver.py',
   'PYMODULE'),
  ('selenium.webdriver.edge',
   'd:\\dimas\\python '
   'file\\lib\\site-packages\\selenium\\webdriver\\edge\\__init__.py',
   'PYMODULE'),
  ('selenium.webdriver.edge.service',
   'd:\\dimas\\python '
   'file\\lib\\site-packages\\selenium\\webdriver\\edge\\service.py',
   'PYMODULE'),
  ('selenium.webdriver.ie.options',
   'd:\\dimas\\python '
   'file\\lib\\site-packages\\selenium\\webdriver\\ie\\options.py',
   'PYMODULE'),
  ('selenium.webdriver.ie',
   'd:\\dimas\\python '
   'file\\lib\\site-packages\\selenium\\webdriver\\ie\\__init__.py',
   'PYMODULE'),
  ('selenium.webdriver.ie.webdriver',
   'd:\\dimas\\python '
   'file\\lib\\site-packages\\selenium\\webdriver\\ie\\webdriver.py',
   'PYMODULE'),
  ('selenium.webdriver.ie.service',
   'd:\\dimas\\python '
   'file\\lib\\site-packages\\selenium\\webdriver\\ie\\service.py',
   'PYMODULE'),
  ('selenium.webdriver.chrome.options',
   'd:\\dimas\\python '
   'file\\lib\\site-packages\\selenium\\webdriver\\chrome\\options.py',
   'PYMODULE'),
  ('selenium.webdriver.chrome',
   'd:\\dimas\\python '
   'file\\lib\\site-packages\\selenium\\webdriver\\chrome\\__init__.py',
   'PYMODULE'),
  ('selenium.webdriver.chrome.webdriver',
   'd:\\dimas\\python '
   'file\\lib\\site-packages\\selenium\\webdriver\\chrome\\webdriver.py',
   'PYMODULE'),
  ('selenium.webdriver.chrome.service',
   'd:\\dimas\\python '
   'file\\lib\\site-packages\\selenium\\webdriver\\chrome\\service.py',
   'PYMODULE'),
  ('selenium.webdriver.chrome.remote_connection',
   'd:\\dimas\\python '
   'file\\lib\\site-packages\\selenium\\webdriver\\chrome\\remote_connection.py',
   'PYMODULE'),
  ('selenium.webdriver.firefox.options',
   'd:\\dimas\\python '
   'file\\lib\\site-packages\\selenium\\webdriver\\firefox\\options.py',
   'PYMODULE'),
  ('selenium.webdriver.firefox',
   'd:\\dimas\\python '
   'file\\lib\\site-packages\\selenium\\webdriver\\firefox\\__init__.py',
   'PYMODULE'),
  ('selenium.webdriver.firefox.firefox_binary',
   'd:\\dimas\\python '
   'file\\lib\\site-packages\\selenium\\webdriver\\firefox\\firefox_binary.py',
   'PYMODULE'),
  ('selenium.webdriver.firefox.firefox_profile',
   'd:\\dimas\\python '
   'file\\lib\\site-packages\\selenium\\webdriver\\firefox\\firefox_profile.py',
   'PYMODULE'),
  ('xml.dom.minidom',
   'd:\\dimas\\python file\\lib\\xml\\dom\\minidom.py',
   'PYMODULE'),
  ('xml.dom.pulldom',
   'd:\\dimas\\python file\\lib\\xml\\dom\\pulldom.py',
   'PYMODULE'),
  ('xml.dom.expatbuilder',
   'd:\\dimas\\python file\\lib\\xml\\dom\\expatbuilder.py',
   'PYMODULE'),
  ('xml.dom.NodeFilter',
   'd:\\dimas\\python file\\lib\\xml\\dom\\NodeFilter.py',
   'PYMODULE'),
  ('xml.dom.xmlbuilder',
   'd:\\dimas\\python file\\lib\\xml\\dom\\xmlbuilder.py',
   'PYMODULE'),
  ('xml.dom.minicompat',
   'd:\\dimas\\python file\\lib\\xml\\dom\\minicompat.py',
   'PYMODULE'),
  ('xml.dom.domreg',
   'd:\\dimas\\python file\\lib\\xml\\dom\\domreg.py',
   'PYMODULE'),
  ('xml.dom', 'd:\\dimas\\python file\\lib\\xml\\dom\\__init__.py', 'PYMODULE'),
  ('selenium.webdriver.firefox.webdriver',
   'd:\\dimas\\python '
   'file\\lib\\site-packages\\selenium\\webdriver\\firefox\\webdriver.py',
   'PYMODULE'),
  ('selenium.webdriver.firefox.webelement',
   'd:\\dimas\\python '
   'file\\lib\\site-packages\\selenium\\webdriver\\firefox\\webelement.py',
   'PYMODULE'),
  ('selenium.webdriver.firefox.service',
   'd:\\dimas\\python '
   'file\\lib\\site-packages\\selenium\\webdriver\\firefox\\service.py',
   'PYMODULE'),
  ('selenium.webdriver.firefox.remote_connection',
   'd:\\dimas\\python '
   'file\\lib\\site-packages\\selenium\\webdriver\\firefox\\remote_connection.py',
   'PYMODULE'),
  ('selenium.webdriver.firefox.extension_connection',
   'd:\\dimas\\python '
   'file\\lib\\site-packages\\selenium\\webdriver\\firefox\\extension_connection.py',
   'PYMODULE'),
  ('selenium',
   'd:\\dimas\\python file\\lib\\site-packages\\selenium\\__init__.py',
   'PYMODULE')],
 [('python38.dll', 'd:\\dimas\\python file\\python38.dll', 'BINARY'),
  ('VCRUNTIME140.dll', 'd:\\dimas\\python file\\VCRUNTIME140.dll', 'BINARY'),
  ('select', 'd:\\dimas\\python file\\DLLs\\select.pyd', 'EXTENSION'),
  ('_overlapped', 'd:\\dimas\\python file\\DLLs\\_overlapped.pyd', 'EXTENSION'),
  ('_ssl', 'd:\\dimas\\python file\\DLLs\\_ssl.pyd', 'EXTENSION'),
  ('_asyncio', 'd:\\dimas\\python file\\DLLs\\_asyncio.pyd', 'EXTENSION'),
  ('_queue', 'd:\\dimas\\python file\\DLLs\\_queue.pyd', 'EXTENSION'),
  ('_hashlib', 'd:\\dimas\\python file\\DLLs\\_hashlib.pyd', 'EXTENSION'),
  ('_lzma', 'd:\\dimas\\python file\\DLLs\\_lzma.pyd', 'EXTENSION'),
  ('_bz2', 'd:\\dimas\\python file\\DLLs\\_bz2.pyd', 'EXTENSION'),
  ('pyexpat', 'd:\\dimas\\python file\\DLLs\\pyexpat.pyd', 'EXTENSION'),
  ('unicodedata', 'd:\\dimas\\python file\\DLLs\\unicodedata.pyd', 'EXTENSION'),
  ('_decimal', 'd:\\dimas\\python file\\DLLs\\_decimal.pyd', 'EXTENSION'),
  ('_ctypes', 'd:\\dimas\\python file\\DLLs\\_ctypes.pyd', 'EXTENSION'),
  ('_multiprocessing',
   'd:\\dimas\\python file\\DLLs\\_multiprocessing.pyd',
   'EXTENSION'),
  ('_socket', 'd:\\dimas\\python file\\DLLs\\_socket.pyd', 'EXTENSION'),
  ('libcrypto-1_1.dll',
   'd:\\dimas\\python file\\DLLs\\libcrypto-1_1.dll',
   'BINARY'),
  ('libssl-1_1.dll', 'd:\\dimas\\python file\\DLLs\\libssl-1_1.dll', 'BINARY'),
  ('libffi-7.dll', 'd:\\dimas\\python file\\DLLs\\libffi-7.dll', 'BINARY')],
 [],
 [],
 [('base_library.zip',
   'D:\\Dimas\\python file\\Python '
   'Project\\build\\automation_speed_test\\base_library.zip',
   'DATA'),
  ('selenium\\webdriver\\firefox\\x86\\x_ignore_nofocus.so',
   'd:\\dimas\\python '
   'file\\lib\\site-packages\\selenium\\webdriver\\firefox\\x86\\x_ignore_nofocus.so',
   'DATA'),
  ('selenium\\webdriver\\firefox\\webdriver.xpi',
   'd:\\dimas\\python '
   'file\\lib\\site-packages\\selenium\\webdriver\\firefox\\webdriver.xpi',
   'DATA'),
  ('selenium\\webdriver\\firefox\\webdriver_prefs.json',
   'd:\\dimas\\python '
   'file\\lib\\site-packages\\selenium\\webdriver\\firefox\\webdriver_prefs.json',
   'DATA'),
  ('selenium\\webdriver\\remote\\isDisplayed.js',
   'd:\\dimas\\python '
   'file\\lib\\site-packages\\selenium\\webdriver\\remote\\isDisplayed.js',
   'DATA'),
  ('selenium\\webdriver\\remote\\getAttribute.js',
   'd:\\dimas\\python '
   'file\\lib\\site-packages\\selenium\\webdriver\\remote\\getAttribute.js',
   'DATA'),
  ('selenium\\webdriver\\firefox\\amd64\\x_ignore_nofocus.so',
   'd:\\dimas\\python '
   'file\\lib\\site-packages\\selenium\\webdriver\\firefox\\amd64\\x_ignore_nofocus.so',
   'DATA')],
 [])
