('D:\\Dimas\\python file\\Python '
 'Project\\build\\automation_speed_test\\PKG-00.pkg',
 {'BINARY': 1,
  'DATA': 1,
  'EXECUTABLE': 1,
  'EXTENSION': 1,
  'PYMODULE': 1,
  'PYSOURCE': 1,
  'PYZ': 0},
 [('PYZ-00.pyz',
   'D:\\Dimas\\python file\\Python '
   'Project\\build\\automation_speed_test\\PYZ-00.pyz',
   'PYZ'),
  ('struct', 'd:\\dimas\\python file\\lib\\struct.pyo', 'PYMODULE'),
  ('pyimod01_os_path',
   'd:\\dimas\\python '
   'file\\lib\\site-packages\\PyInstaller\\loader\\pyimod01_os_path.pyc',
   'PYMODULE'),
  ('pyimod02_archive',
   'd:\\dimas\\python '
   'file\\lib\\site-packages\\PyInstaller\\loader\\pyimod02_archive.pyc',
   'PYMODULE'),
  ('pyimod03_importers',
   'd:\\dimas\\python '
   'file\\lib\\site-packages\\PyInstaller\\loader\\pyimod03_importers.pyc',
   'PYMODULE'),
  ('pyiboot01_bootstrap',
   'd:\\dimas\\python '
   'file\\lib\\site-packages\\PyInstaller\\loader\\pyiboot01_bootstrap.py',
   'PYSOURCE'),
  ('pyi_rth_multiprocessing',
   'D:\\Dimas\\python '
   'file\\Lib\\site-packages\\PyInstaller\\hooks\\rthooks\\pyi_rth_multiprocessing.py',
   'PYSOURCE'),
  ('automation_speed_test',
   'D:\\Dimas\\python file\\Python Project\\automation_speed_test.py',
   'PYSOURCE'),
  ('python38.dll', 'd:\\dimas\\python file\\python38.dll', 'BINARY'),
  ('VCRUNTIME140.dll', 'd:\\dimas\\python file\\VCRUNTIME140.dll', 'BINARY'),
  ('select', 'd:\\dimas\\python file\\DLLs\\select.pyd', 'EXTENSION'),
  ('_overlapped', 'd:\\dimas\\python file\\DLLs\\_overlapped.pyd', 'EXTENSION'),
  ('_ssl', 'd:\\dimas\\python file\\DLLs\\_ssl.pyd', 'EXTENSION'),
  ('_asyncio', 'd:\\dimas\\python file\\DLLs\\_asyncio.pyd', 'EXTENSION'),
  ('_queue', 'd:\\dimas\\python file\\DLLs\\_queue.pyd', 'EXTENSION'),
  ('_hashlib', 'd:\\dimas\\python file\\DLLs\\_hashlib.pyd', 'EXTENSION'),
  ('_lzma', 'd:\\dimas\\python file\\DLLs\\_lzma.pyd', 'EXTENSION'),
  ('_bz2', 'd:\\dimas\\python file\\DLLs\\_bz2.pyd', 'EXTENSION'),
  ('pyexpat', 'd:\\dimas\\python file\\DLLs\\pyexpat.pyd', 'EXTENSION'),
  ('unicodedata', 'd:\\dimas\\python file\\DLLs\\unicodedata.pyd', 'EXTENSION'),
  ('_decimal', 'd:\\dimas\\python file\\DLLs\\_decimal.pyd', 'EXTENSION'),
  ('_ctypes', 'd:\\dimas\\python file\\DLLs\\_ctypes.pyd', 'EXTENSION'),
  ('_multiprocessing',
   'd:\\dimas\\python file\\DLLs\\_multiprocessing.pyd',
   'EXTENSION'),
  ('_socket', 'd:\\dimas\\python file\\DLLs\\_socket.pyd', 'EXTENSION'),
  ('libcrypto-1_1.dll',
   'd:\\dimas\\python file\\DLLs\\libcrypto-1_1.dll',
   'BINARY'),
  ('libssl-1_1.dll', 'd:\\dimas\\python file\\DLLs\\libssl-1_1.dll', 'BINARY'),
  ('libffi-7.dll', 'd:\\dimas\\python file\\DLLs\\libffi-7.dll', 'BINARY'),
  ('base_library.zip',
   'D:\\Dimas\\python file\\Python '
   'Project\\build\\automation_speed_test\\base_library.zip',
   'DATA'),
  ('selenium\\webdriver\\firefox\\x86\\x_ignore_nofocus.so',
   'd:\\dimas\\python '
   'file\\lib\\site-packages\\selenium\\webdriver\\firefox\\x86\\x_ignore_nofocus.so',
   'DATA'),
  ('selenium\\webdriver\\firefox\\webdriver.xpi',
   'd:\\dimas\\python '
   'file\\lib\\site-packages\\selenium\\webdriver\\firefox\\webdriver.xpi',
   'DATA'),
  ('selenium\\webdriver\\firefox\\webdriver_prefs.json',
   'd:\\dimas\\python '
   'file\\lib\\site-packages\\selenium\\webdriver\\firefox\\webdriver_prefs.json',
   'DATA'),
  ('selenium\\webdriver\\remote\\isDisplayed.js',
   'd:\\dimas\\python '
   'file\\lib\\site-packages\\selenium\\webdriver\\remote\\isDisplayed.js',
   'DATA'),
  ('selenium\\webdriver\\remote\\getAttribute.js',
   'd:\\dimas\\python '
   'file\\lib\\site-packages\\selenium\\webdriver\\remote\\getAttribute.js',
   'DATA'),
  ('selenium\\webdriver\\firefox\\amd64\\x_ignore_nofocus.so',
   'd:\\dimas\\python '
   'file\\lib\\site-packages\\selenium\\webdriver\\firefox\\amd64\\x_ignore_nofocus.so',
   'DATA'),
  ('automation_speed_test.exe.manifest',
   'D:\\Dimas\\python file\\Python '
   'Project\\build\\automation_speed_test\\automation_speed_test.exe.manifest',
   'BINARY'),
  ('pyi-windows-manifest-filename automation_speed_test.exe.manifest',
   '',
   'OPTION')],
 False,
 False,
 False,
 [])
